<?xml version="1.0" encoding="utf-8"?>
<!-- Generator: Adobe Illustrator 24.0.1, SVG Export Plug-In . SVG Version: 6.00 Build 0)  -->
<svg version="1.1" id="Layer_1" xmlns="http://www.w3.org/2000/svg" xmlns:xlink="http://www.w3.org/1999/xlink" x="0px" y="0px"
	 viewBox="0 0 150 150" style="enable-background:new 0 0 150 150;" xml:space="preserve" fill="#8D96C7">

<path d="M58.78,51.26H13.54c-5.82,0-10.56-4.73-10.56-10.56V13.56C2.99,7.73,7.72,3,13.54,3h45.24
	c5.82,0,10.56,4.73,10.56,10.56V40.7C69.34,46.52,64.6,51.26,58.78,51.26z M13.54,12.05c-0.83,0-1.51,0.68-1.51,1.51V40.7
	c0,0.83,0.68,1.51,1.51,1.51h45.24c0.83,0,1.51-0.68,1.51-1.51V13.56c0-0.83-0.68-1.51-1.51-1.51H13.54z M58.78,147.77H13.54
	c-5.82,0-10.56-4.73-10.56-10.56V73.88c0-5.82,4.73-10.56,10.56-10.56h45.24c5.82,0,10.56,4.73,10.56,10.56v63.33
	C69.34,143.03,64.6,147.77,58.78,147.77z M13.54,72.37c-0.83,0-1.51,0.68-1.51,1.51v63.33c0,0.83,0.68,1.51,1.51,1.51h45.24
	c0.83,0,1.51-0.68,1.51-1.51V73.88c0-0.83-0.68-1.51-1.51-1.51H13.54z M137.2,147.77H91.96c-5.82,0-10.56-4.73-10.56-10.56v-27.14
	c0-5.82,4.73-10.56,10.56-10.56h45.24c5.82,0,10.56,4.73,10.56,10.56v27.14C147.75,143.03,143.02,147.77,137.2,147.77z
	 M91.96,108.56c-0.83,0-1.51,0.68-1.51,1.51v27.14c0,0.83,0.68,1.51,1.51,1.51h45.24c0.83,0,1.51-0.68,1.51-1.51v-27.14
	c0-0.83-0.68-1.51-1.51-1.51H91.96z M137.2,87.45H91.96c-5.82,0-10.56-4.73-10.56-10.56V13.56C81.4,7.73,86.14,3,91.96,3h45.24
	c5.82,0,10.56,4.73,10.56,10.56v63.33C147.75,82.71,143.02,87.45,137.2,87.45z M91.96,12.05c-0.83,0-1.51,0.68-1.51,1.51v63.33
	c0,0.83,0.68,1.51,1.51,1.51h45.24c0.83,0,1.51-0.68,1.51-1.51V13.56c0-0.83-0.68-1.51-1.51-1.51H91.96z"/>
</svg>
