<?xml version="1.0" encoding="utf-8"?>
<!-- Generator: Adobe Illustrator 24.0.1, SVG Export Plug-In . SVG Version: 6.00 Build 0)  -->
<svg version="1.1" id="Layer_1" xmlns="http://www.w3.org/2000/svg" xmlns:xlink="http://www.w3.org/1999/xlink" x="0px" y="0px"
	 viewBox="0 0 292 60" style="enable-background:new 0 0 292 60;" xml:space="preserve">
<style type="text/css">
	.st0{fill:#F27526;}
	.st1{fill:#2FA504;}
	.st2{fill:#FFFFFF;}
</style>
<g>
	<g>
		<path class="st0" d="M19.1,50.6h-3.7L8.1,29.4l0.5-0.7h6.3V14.1h-9v36.5H2.3V11h13.2c0.8,0,1.5,0.3,2,0.8s0.8,1.2,0.8,2v15
			c0,1.9-1.3,2.9-3.8,2.9c-0.3,0-0.6,0-1.1,0s-0.8,0-1.1,0C14.6,37.9,16.9,44.2,19.1,50.6z"/>
		<path class="st0" d="M28.1,50.6h-3.5V11h3.5V50.6z"/>
		<path class="st0" d="M51,50.6h-2.4L38,21.5v29.1h-3.3V11h2.6l10.4,28.6V11H51V50.6z"/>
		<path class="st0" d="M73.3,47.8c0,0.8-0.3,1.5-0.8,2s-1.2,0.8-2,0.8H60.1c-0.8,0-1.5-0.3-2-0.8s-0.8-1.2-0.8-2v-34
			c0-0.8,0.3-1.5,0.8-2s1.2-0.8,2-0.8h10.4c0.8,0,1.5,0.3,2,0.8s0.8,1.2,0.8,2V23h-3.5v-8.9h-9v33.3h9V33.8h-4.2v-3h7.8V47.8z"/>
		<path class="st0" d="M103.4,14.1h-6.1v36.5h-3.5V14.1h-6.2V11h15.8V14.1z"/>
		<path class="st0" d="M124.1,50.6h-3.5v-19H111v19h-3.5V11h3.5v17.4h9.5V11h3.5V50.6z"/>
		<path class="st0" d="M143.4,50.6h-13V11h12.8v3.1h-9.3v14.8h8.5V32h-8.5v15.4h9.5V50.6z"/>
		<path class="st1" d="M174.9,47.8c0,0.8-0.3,1.5-0.8,2s-1.2,0.8-2,0.8h-13V11H172c0.8,0,1.5,0.3,2,0.8s0.8,1.2,0.8,2v11.8
			c0,1-0.5,1.9-1.4,2.6c-0.9,0.6-1.9,1.1-2.8,1.7l3,1.9c0.9,0.5,1.3,1.4,1.3,2.5V47.8z M171.2,26V14.1h-8.7v14.3h5.2L171.2,26z
			 M171.3,47.5V33.8l-3.6-2.3h-5.2v16H171.3z"/>
		<path class="st1" d="M194,50.6h-13V11h12.8v3.1h-9.3v14.8h8.5V32h-8.5v15.4h9.5V50.6z"/>
		<path class="st1" d="M212.1,50.6h-12.6V11h3.5v36.5h9.1V50.6z"/>
		<path class="st1" d="M229.6,50.6h-12.6V11h3.5v36.5h9.1V50.6z"/>
	</g>
	<g>
		<path class="st0" d="M267.3,12c1.8,0.8,3.6,1.5,5.3,2.4c3.5,1.9,6.3,4.7,8,8.4c0.7,1.5,1,3,1.1,4.6c0.1,4.1,1.1,8,2.6,11.8
			c1.6,3.9,3.7,7.5,6.2,10.9C280,40.6,271.2,29.6,262,18.8c-4.4,5.2-8.8,10.3-13.1,15.4c-4.4,5-9,9.9-13.9,14.4
			c0.5-0.8,1-1.7,1.4-2.5c2.3-4.4,3.7-9,4.1-13.9c0.2-2.3,0.4-4.7,0.8-7c0.7-3.9,2.8-6.8,5.9-9.2c1.9-1.4,3.9-2.5,6.1-3.2
			c0.4-0.1,0.4-0.3,0.4-0.7c-0.3-2.7,0-5.4,1.5-7.7c1.1-1.8,2.6-3.1,4.8-3.4c1.5-0.2,2.9,0.3,4,1.4c2.4,2.2,3.2,5,3.3,8.1
			c0,0.3,0,0.6,0,0.8C267.3,11.6,267.3,11.8,267.3,12z M256.5,10.5c0,0.3,0,0.5,0,0.8c0,0.5,0.2,0.6,0.6,0.5c0.3-0.1,0.7-0.1,1-0.2
			c2-0.2,4-0.3,6,0c0.3,0,0.5-0.1,0.5-0.4c0-0.4,0-0.8,0-1.3c-0.2-1.6-0.7-3-2.3-3.6c-1.5-0.6-3.1-0.5-4.4,0.6
			C256.8,7.8,256.5,9.1,256.5,10.5z"/>
		<path class="st2" d="M256.5,10.5c0.1-1.4,0.3-2.7,1.5-3.6c1.3-1.1,2.9-1.1,4.4-0.6c1.6,0.6,2.1,2,2.3,3.6c0,0.4,0,0.8,0,1.3
			c0,0.3-0.2,0.4-0.5,0.4c-2-0.3-4-0.2-6,0c-0.3,0-0.7,0.1-1,0.2c-0.5,0.1-0.6,0-0.6-0.5C256.5,11,256.5,10.8,256.5,10.5z"/>
		<path class="st1" d="M239.3,50.3l22.9-24.5l21.8,23C284,48.8,258.6,42.8,239.3,50.3z"/>
		<rect x="258.5" y="39.1" class="st2" width="4" height="4"/>
		<rect x="263.1" y="39.1" class="st2" width="4" height="4"/>
		<rect x="263.1" y="34.5" class="st2" width="4" height="4"/>
		<rect x="258.5" y="34.5" class="st2" width="4" height="4"/>
	</g>
</g>
</svg>
